HW5 - Make Data Move
…
We see an interesting spread with an outlier to the right. Answer the following questions, please:

Why does it make sense to have a log10 scale on x axis? # that is because log10 is a default option for rmarkdown

Who is the outlier (the richest country in 1952 - far right on x axis)? #The answer is Kuwait, look below to see the answer the function I wrote to answer

gapminder %>% 
  filter(year == 1952) %>% 
  arrange(desc(gdpPercap))

## # A tibble: 142 x 6
##    country        continent  year lifeExp       pop gdpPercap
##    <fct>          <fct>     <int>   <dbl>     <int>     <dbl>
##  1 Kuwait         Asia       1952    55.6    160000   108382.
##  2 Switzerland    Europe     1952    69.6   4815000    14734.
##  3 United States  Americas   1952    68.4 157553000    13990.
##  4 Canada         Americas   1952    68.8  14785584    11367.
##  5 New Zealand    Oceania    1952    69.4   1994794    10557.
##  6 Norway         Europe     1952    72.7   3327728    10095.
##  7 Australia      Oceania    1952    69.1   8691212    10040.
##  8 United Kingdom Europe     1952    69.2  50430000     9980.
##  9 Bahrain        Asia       1952    50.9    120447     9867.
## 10 Denmark        Europe     1952    70.8   4334000     9692.
## # ... with 132 more rows
…
  scale_x_log10() 

## <ScaleContinuousPosition>
##  Range:  
##  Limits:    0 --    1

What are the five richest countries in the world in 2007?

The correct answer is Norway, Kuwait, Singapore, United States, Ireland.

gapminder %>% 
  filter(year ==2007) %>% 
  arrange(desc(gdpPercap))

## # A tibble: 142 x 6
##    country          continent  year lifeExp       pop gdpPercap
##    <fct>            <fct>     <int>   <dbl>     <int>     <dbl>
##  1 Norway           Europe     2007    80.2   4627926    49357.
##  2 Kuwait           Asia       2007    77.6   2505559    47307.
##  3 Singapore        Asia       2007    80.0   4553009    47143.
##  4 United States    Americas   2007    78.2 301139947    42952.
##  5 Ireland          Europe     2007    78.9   4109086    40676.
##  6 Hong Kong, China Asia       2007    82.2   6980412    39725.
##  7 Switzerland      Europe     2007    81.7   7554661    37506.
##  8 Netherlands      Europe     2007    79.8  16570613    36798.
##  9 Canada           Americas   2007    80.7  33390141    36319.
## 10 Iceland          Europe     2007    81.8    301931    36181.
## # ... with 132 more rows
…
6. *Can you made the axes' labels and units more readable? Consider expanding the abreviated lables as well as the scientific notation in the legend and x axis to whole numbers.*

#see option 1 and what i did 

7. *Come up with a question you want to answer using the gapminder data and write it down. Then, create a data visualisation that answers the question and explain how your visualization answers the question.(Example: you wish to see what was mean life expectancy across the continents in the year you were born versus your parents' birth years). [Hint: if you wish to have more data than is in the filtered gapminder, you can load either the `gapminder_unfiltered` dataset and download more at https://www.gapminder.org/data/ ]*

# I want to have a look at the Gdp pr. Cap in 1997 because i was born in 1998 and i would like to see where the best place would have been.
# The following script is 

```r
gapminder %>% 
  filter(year ==1997) %>% 
  arrange(desc(gdpPercap))

## # A tibble: 142 x 6
##    country       continent  year lifeExp       pop gdpPercap
##    <fct>         <fct>     <int>   <dbl>     <int>     <dbl>
##  1 Norway        Europe     1997    78.3   4405672    41283.
##  2 Kuwait        Asia       1997    76.2   1765345    40301.
##  3 United States Americas   1997    76.8 272911760    35767.
##  4 Singapore     Asia       1997    77.2   3802309    33519.
##  5 Switzerland   Europe     1997    79.4   7193761    32135.
##  6 Netherlands   Europe     1997    78.0  15604464    30246.
##  7 Denmark       Europe     1997    76.1   5283663    29804.
##  8 Austria       Europe     1997    77.5   8069876    29096.
##  9 Canada        Americas   1997    78.6  30305843    28955.
## 10 Japan         Asia       1997    80.7 125956499    28817.
## # ... with 132 more rows
…
